…
## Exemplo

This is a basic example which shows you how to solve a common problem:

``` r
library(folhar2)

inicio_mes <- Sys.Date() %>% 
  lubridate::floor_date("month") %>% 
  format(format = "%d/%m/%Y") 

busca <- folha_buscar("recessao", inicio_mes)
busca
#> # A tibble: 40 x 5
#>    secao     manchete            resumo            hora    link            
#>    <chr>     <chr>               <chr>             <chr>   <chr>           
#>  1 Folha de… Governo calcula al… Se esse resultad… 22.ago… https://www1.fo…
#>  2 Folha de… Dólar vai a R$ 4,0… O rendimento mai… 22.ago… https://www1.fo…
#>  3 Folha de… Dinâmica da desigu… Mas, com a chega… 22.ago… https://www1.fo…
#>  4 Folha de… Aposta habitacional São bem-vindas, … 22.ago… https://www1.fo…
#>  5 Folha de… Ataque ao BNDES é … Mas não pode, e … 21.ago… https://www1.fo…
#>  6 Folha de… Banco público quer… Com a mudança, a… 21.ago… https://www1.fo…
#>  7 Folha de… Caixa lança crédit… Com a mudança, a… 20.ago… https://www1.fo…
#>  8 Folha de… Dólar sobe 1,6% e … Nesta segunda-fe… 19.ago… https://www1.fo…
#>  9 Folha de… Economistas melhor… Não estou vendo … 19.ago… https://www1.fo…
#> 10 Folha de… Não dar seguro saú… E a reforma bras… 19.ago… https://www1.fo…
#> # … with 30 more rows
```
…
